^C:\USERS\SKA\DOCUMENTS\VISUAL STUDIO 2012\PROJECTS\MLD45\MLD45\STDAFX.CPP
C:\PROGRAM FILES (X86)\MICROSOFT VISUAL STUDIO 11.0\VC\BIN\1033\CLUI.DLL
C:\WINDOWS\GLOBALIZATION\SORTING\SORTDEFAULT.NLS
C:\WINDOWS\SYSTEM32\RSAENH.DLL
C:\WINDOWS\SYSTEM32\TZRES.DLL
C:\USERS\SKA\DOCUMENTS\VISUAL STUDIO 2012\PROJECTS\MLD45\MLD45\STDAFX.H
C:\PROGRAM FILES (X86)\MICROSOFT VISUAL STUDIO 11.0\VC\INCLUDE\STDIO.H
C:\PROGRAM FILES (X86)\MICROSOFT VISUAL STUDIO 11.0\VC\INCLUDE\CRTDEFS.H
C:\PROGRAM FILES (X86)\MICROSOFT VISUAL STUDIO 11.0\VC\INCLUDE\SAL.H
C:\PROGRAM FILES (X86)\MICROSOFT VISUAL STUDIO 11.0\VC\INCLUDE\CONCURRENCYSAL.H
C:\PROGRAM FILES (X86)\MICROSOFT VISUAL STUDIO 11.0\VC\INCLUDE\VADEFS.H
C:\PROGRAM FILES (X86)\MICROSOFT VISUAL STUDIO 11.0\VC\INCLUDE\SWPRINTF.INL
C:\PROGRAM FILES (X86)\MICROSOFT VISUAL STUDIO 11.0\VC\INCLUDE\IOSTREAM
C:\PROGRAM FILES (X86)\MICROSOFT VISUAL STUDIO 11.0\VC\INCLUDE\ISTREAM
C:\PROGRAM FILES (X86)\MICROSOFT VISUAL STUDIO 11.0\VC\INCLUDE\OSTREAM
C:\PROGRAM FILES (X86)\MICROSOFT VISUAL STUDIO 11.0\VC\INCLUDE\IOS
C:\PROGRAM FILES (X86)\MICROSOFT VISUAL STUDIO 11.0\VC\INCLUDE\XLOCNUM
C:\PROGRAM FILES (X86)\MICROSOFT VISUAL STUDIO 11.0\VC\INCLUDE\CLIMITS
C:\PROGRAM FILES (X86)\MICROSOFT VISUAL STUDIO 11.0\VC\INCLUDE\YVALS.H
C:\PROGRAM FILES (X86)\MICROSOFT VISUAL STUDIO 11.0\VC\INCLUDE\XKEYCHECK.H
C:\PROGRAM FILES (X86)\MICROSOFT VISUAL STUDIO 11.0\VC\INCLUDE\USE_ANSI.H
C:\PROGRAM FILES (X86)\MICROSOFT VISUAL STUDIO 11.0\VC\INCLUDE\LIMITS.H
C:\PROGRAM FILES (X86)\MICROSOFT VISUAL STUDIO 11.0\VC\INCLUDE\CMATH
C:\PROGRAM FILES (X86)\MICROSOFT VISUAL STUDIO 11.0\VC\INCLUDE\MATH.H
C:\PROGRAM FILES (X86)\MICROSOFT VISUAL STUDIO 11.0\VC\INCLUDE\XTGMATH.H
C:\PROGRAM FILES (X86)\MICROSOFT VISUAL STUDIO 11.0\VC\INCLUDE\XTR1COMMON
C:\PROGRAM FILES (X86)\MICROSOFT VISUAL STUDIO 11.0\VC\INCLUDE\CSTDIO
C:\PROGRAM FILES (X86)\MICROSOFT VISUAL STUDIO 11.0\VC\INCLUDE\CSTDLIB
C:\PROGRAM FILES (X86)\MICROSOFT VISUAL STUDIO 11.0\VC\INCLUDE\STDLIB.H
C:\PROGRAM FILES (X86)\MICROSOFT VISUAL STUDIO 11.0\VC\INCLUDE\STREAMBUF
C:\PROGRAM FILES (X86)\MICROSOFT VISUAL STUDIO 11.0\VC\INCLUDE\XIOSBASE
C:\PROGRAM FILES (X86)\MICROSOFT VISUAL STUDIO 11.0\VC\INCLUDE\XLOCALE
C:\PROGRAM FILES (X86)\MICROSOFT VISUAL STUDIO 11.0\VC\INCLUDE\CSTRING
C:\PROGRAM FILES (X86)\MICROSOFT VISUAL STUDIO 11.0\VC\INCLUDE\STRING.H
C:\PROGRAM FILES (X86)\MICROSOFT VISUAL STUDIO 11.0\VC\INCLUDE\STDEXCEPT
C:\PROGRAM FILES (X86)\MICROSOFT VISUAL STUDIO 11.0\VC\INCLUDE\EXCEPTION
C:\PROGRAM FILES (X86)\MICROSOFT VISUAL STUDIO 11.0\VC\INCLUDE\XSTDDEF
C:\PROGRAM FILES (X86)\MICROSOFT VISUAL STUDIO 11.0\VC\INCLUDE\CSTDDEF
C:\PROGRAM FILES (X86)\MICROSOFT VISUAL STUDIO 11.0\VC\INCLUDE\STDDEF.H
C:\PROGRAM FILES (X86)\MICROSOFT VISUAL STUDIO 11.0\VC\INCLUDE\EH.H
C:\PROGRAM FILES (X86)\MICROSOFT VISUAL STUDIO 11.0\VC\INCLUDE\MALLOC.H
C:\PROGRAM FILES (X86)\MICROSOFT VISUAL STUDIO 11.0\VC\INCLUDE\XSTRING
C:\PROGRAM FILES (X86)\MICROSOFT VISUAL STUDIO 11.0\VC\INCLUDE\XMEMORY0
C:\PROGRAM FILES (X86)\MICROSOFT VISUAL STUDIO 11.0\VC\INCLUDE\LIMITS
C:\PROGRAM FILES (X86)\MICROSOFT VISUAL STUDIO 11.0\VC\INCLUDE\YMATH.H
C:\PROGRAM FILES (X86)\MICROSOFT VISUAL STUDIO 11.0\VC\INCLUDE\CFLOAT
C:\PROGRAM FILES (X86)\MICROSOFT VISUAL STUDIO 11.0\VC\INCLUDE\FLOAT.H
C:\PROGRAM FILES (X86)\MICROSOFT VISUAL STUDIO 11.0\VC\INCLUDE\CRTWRN.H
C:\PROGRAM FILES (X86)\MICROSOFT VISUAL STUDIO 11.0\VC\INCLUDE\CWCHAR
C:\PROGRAM FILES (X86)\MICROSOFT VISUAL STUDIO 11.0\VC\INCLUDE\WCHAR.H
C:\PROGRAM FILES (X86)\MICROSOFT VISUAL STUDIO 11.0\VC\INCLUDE\WTIME.INL
C:\PROGRAM FILES (X86)\MICROSOFT VISUAL STUDIO 11.0\VC\INCLUDE\NEW
C:\PROGRAM FILES (X86)\MICROSOFT VISUAL STUDIO 11.0\VC\INCLUDE\XUTILITY
C:\PROGRAM FILES (X86)\MICROSOFT VISUAL STUDIO 11.0\VC\INCLUDE\UTILITY
C:\PROGRAM FILES (X86)\MICROSOFT VISUAL STUDIO 11.0\VC\INCLUDE\IOSFWD
C:\PROGRAM FILES (X86)\MICROSOFT VISUAL STUDIO 11.0\VC\INCLUDE\CRTDBG.H
C:\PROGRAM FILES (X86)\MICROSOFT VISUAL STUDIO 11.0\VC\INCLUDE\TYPE_TRAITS
C:\PROGRAM FILES (X86)\MICROSOFT VISUAL STUDIO 11.0\VC\INCLUDE\XREFWRAP
C:\PROGRAM FILES (X86)\MICROSOFT VISUAL STUDIO 11.0\VC\INCLUDE\XATOMIC0.H
C:\PROGRAM FILES (X86)\MICROSOFT VISUAL STUDIO 11.0\VC\INCLUDE\INTRIN.H
C:\PROGRAM FILES (X86)\MICROSOFT VISUAL STUDIO 11.0\VC\INCLUDE\SETJMP.H
C:\PROGRAM FILES (X86)\MICROSOFT VISUAL STUDIO 11.0\VC\INCLUDE\IMMINTRIN.H
C:\PROGRAM FILES (X86)\MICROSOFT VISUAL STUDIO 11.0\VC\INCLUDE\WMMINTRIN.H
C:\PROGRAM FILES (X86)\MICROSOFT VISUAL STUDIO 11.0\VC\INCLUDE\NMMINTRIN.H
C:\PROGRAM FILES (X86)\MICROSOFT VISUAL STUDIO 11.0\VC\INCLUDE\SMMINTRIN.H
C:\PROGRAM FILES (X86)\MICROSOFT VISUAL STUDIO 11.0\VC\INCLUDE\TMMINTRIN.H
C:\PROGRAM FILES (X86)\MICROSOFT VISUAL STUDIO 11.0\VC\INCLUDE\PMMINTRIN.H
C:\PROGRAM FILES (X86)\MICROSOFT VISUAL STUDIO 11.0\VC\INCLUDE\EMMINTRIN.H
C:\PROGRAM FILES (X86)\MICROSOFT VISUAL STUDIO 11.0\VC\INCLUDE\XMMINTRIN.H
C:\PROGRAM FILES (X86)\MICROSOFT VISUAL STUDIO 11.0\VC\INCLUDE\MMINTRIN.H
C:\PROGRAM FILES (X86)\MICROSOFT VISUAL STUDIO 11.0\VC\INCLUDE\AMMINTRIN.H
C:\PROGRAM FILES (X86)\MICROSOFT VISUAL STUDIO 11.0\VC\INCLUDE\MM3DNOW.H
C:\PROGRAM FILES (X86)\MICROSOFT VISUAL STUDIO 11.0\VC\INCLUDE\TYPEINFO
C:\PROGRAM FILES (X86)\MICROSOFT VISUAL STUDIO 11.0\VC\INCLUDE\XLOCINFO
C:\PROGRAM FILES (X86)\MICROSOFT VISUAL STUDIO 11.0\VC\INCLUDE\XLOCINFO.H
C:\PROGRAM FILES (X86)\MICROSOFT VISUAL STUDIO 11.0\VC\INCLUDE\CTYPE.H
C:\PROGRAM FILES (X86)\MICROSOFT VISUAL STUDIO 11.0\VC\INCLUDE\LOCALE.H
C:\PROGRAM FILES (X86)\MICROSOFT VISUAL STUDIO 11.0\VC\INCLUDE\XDEBUG
C:\PROGRAM FILES (X86)\MICROSOFT VISUAL STUDIO 11.0\VC\INCLUDE\XFACET
C:\PROGRAM FILES (X86)\MICROSOFT VISUAL STUDIO 11.0\VC\INCLUDE\SYSTEM_ERROR
C:\PROGRAM FILES (X86)\MICROSOFT VISUAL STUDIO 11.0\VC\INCLUDE\CERRNO
C:\PROGRAM FILES (X86)\MICROSOFT VISUAL STUDIO 11.0\VC\INCLUDE\ERRNO.H
C:\PROGRAM FILES (X86)\MICROSOFT VISUAL STUDIO 11.0\VC\INCLUDE\SHARE.H
C:\PROGRAM FILES (X86)\MICROSOFT VISUAL STUDIO 11.0\VC\INCLUDE\STRING
C:\PROGRAM FILES (X86)\MICROSOFT VISUAL STUDIO 11.0\VC\INCLUDE\ITERATOR
C:\PROGRAM FILES (X86)\MICROSOFT VISUAL STUDIO 11.0\VC\INCLUDE\IOMANIP
C:\PROGRAM FILES (X86)\MICROSOFT VISUAL STUDIO 11.0\VC\INCLUDE\XLOCMON
C:\PROGRAM FILES (X86)\MICROSOFT VISUAL STUDIO 11.0\VC\INCLUDE\XLOCTIME
C:\PROGRAM FILES (X86)\MICROSOFT VISUAL STUDIO 11.0\VC\INCLUDE\CTIME
C:\PROGRAM FILES (X86)\MICROSOFT VISUAL STUDIO 11.0\VC\INCLUDE\TIME.H
C:\PROGRAM FILES (X86)\MICROSOFT VISUAL STUDIO 11.0\VC\INCLUDE\TIME.INL
C:\PROGRAM FILES (X86)\MICROSOFT VISUAL STUDIO 11.0\VC\INCLUDE\FSTREAM
C:\PROGRAM FILES (X86)\MICROSOFT VISUAL STUDIO 11.0\VC\INCLUDE\SSTREAM
C:\PROGRAM FILES (X86)\MICROSOFT VISUAL STUDIO 11.0\VC\INCLUDE\VECTOR
C:\PROGRAM FILES (X86)\MICROSOFT VISUAL STUDIO 11.0\VC\INCLUDE\XMEMORY
C:\PROGRAM FILES (X86)\MICROSOFT VISUAL STUDIO 11.0\VC\INCLUDE\ARRAY
C:\PROGRAM FILES (X86)\MICROSOFT VISUAL STUDIO 11.0\VC\INCLUDE\ALGORITHM
^C:\USERS\SKA\DOCUMENTS\VISUAL STUDIO 2012\PROJECTS\MLD45\MLD45\CREATURE.CPP
C:\USERS\SKA\DOCUMENTS\VISUAL STUDIO 2012\PROJECTS\MLD45\MLD45\RELEASE\ELVESEATFOOD.PCH
C:\USERS\SKA\DOCUMENTS\VISUAL STUDIO 2012\PROJECTS\MLD45\MLD45\CREATURE.H
C:\USERS\SKA\DOCUMENTS\VISUAL STUDIO 2012\PROJECTS\MLD45\MLD45\ITEM.H
C:\USERS\SKA\DOCUMENTS\VISUAL STUDIO 2012\PROJECTS\MLD45\MLD45\GAMEOBJECT.H
C:\USERS\SKA\DOCUMENTS\VISUAL STUDIO 2012\PROJECTS\MLD45\MLD45\POSITION.H
C:\USERS\SKA\DOCUMENTS\VISUAL STUDIO 2012\PROJECTS\MLD45\MLD45\PATH.H
C:\USERS\SKA\DOCUMENTS\VISUAL STUDIO 2012\PROJECTS\MLD45\MLD45\SCREENBUFFER.H
C:\USERS\SKA\DOCUMENTS\VISUAL STUDIO 2012\PROJECTS\MLD45\MLD45\STDAFX.H
C:\USERS\SKA\DOCUMENTS\VISUAL STUDIO 2012\PROJECTS\MLD45\MLD45\GAMEWORLD.H
^C:\USERS\SKA\DOCUMENTS\VISUAL STUDIO 2012\PROJECTS\MLD45\MLD45\ELF.CPP
C:\USERS\SKA\DOCUMENTS\VISUAL STUDIO 2012\PROJECTS\MLD45\MLD45\RELEASE\ELVESEATFOOD.PCH
C:\USERS\SKA\DOCUMENTS\VISUAL STUDIO 2012\PROJECTS\MLD45\MLD45\ELF.H
C:\USERS\SKA\DOCUMENTS\VISUAL STUDIO 2012\PROJECTS\MLD45\MLD45\CREATURE.H
C:\USERS\SKA\DOCUMENTS\VISUAL STUDIO 2012\PROJECTS\MLD45\MLD45\ITEM.H
C:\USERS\SKA\DOCUMENTS\VISUAL STUDIO 2012\PROJECTS\MLD45\MLD45\GAMEOBJECT.H
C:\USERS\SKA\DOCUMENTS\VISUAL STUDIO 2012\PROJECTS\MLD45\MLD45\POSITION.H
C:\USERS\SKA\DOCUMENTS\VISUAL STUDIO 2012\PROJECTS\MLD45\MLD45\PATH.H
C:\USERS\SKA\DOCUMENTS\VISUAL STUDIO 2012\PROJECTS\MLD45\MLD45\SCREENBUFFER.H
C:\USERS\SKA\DOCUMENTS\VISUAL STUDIO 2012\PROJECTS\MLD45\MLD45\STDAFX.H
C:\USERS\SKA\DOCUMENTS\VISUAL STUDIO 2012\PROJECTS\MLD45\MLD45\GAMEWORLD.H
^C:\USERS\SKA\DOCUMENTS\VISUAL STUDIO 2012\PROJECTS\MLD45\MLD45\GAME.CPP
C:\USERS\SKA\DOCUMENTS\VISUAL STUDIO 2012\PROJECTS\MLD45\MLD45\RELEASE\ELVESEATFOOD.PCH
C:\USERS\SKA\DOCUMENTS\VISUAL STUDIO 2012\PROJECTS\MLD45\MLD45\GAME.H
C:\USERS\SKA\DOCUMENTS\VISUAL STUDIO 2012\PROJECTS\MLD45\MLD45\STDAFX.H
C:\USERS\SKA\DOCUMENTS\VISUAL STUDIO 2012\PROJECTS\MLD45\MLD45\GAMEWORLD.H
C:\USERS\SKA\DOCUMENTS\VISUAL STUDIO 2012\PROJECTS\MLD45\MLD45\GAMEOBJECT.H
C:\USERS\SKA\DOCUMENTS\VISUAL STUDIO 2012\PROJECTS\MLD45\MLD45\SCREENBUFFER.H
C:\USERS\SKA\DOCUMENTS\VISUAL STUDIO 2012\PROJECTS\MLD45\MLD45\ITEM.H
C:\USERS\SKA\DOCUMENTS\VISUAL STUDIO 2012\PROJECTS\MLD45\MLD45\POSITION.H
C:\USERS\SKA\DOCUMENTS\VISUAL STUDIO 2012\PROJECTS\MLD45\MLD45\CREATURE.H
C:\USERS\SKA\DOCUMENTS\VISUAL STUDIO 2012\PROJECTS\MLD45\MLD45\PATH.H
C:\USERS\SKA\DOCUMENTS\VISUAL STUDIO 2012\PROJECTS\MLD45\MLD45\ELF.H
^C:\USERS\SKA\DOCUMENTS\VISUAL STUDIO 2012\PROJECTS\MLD45\MLD45\GAMEOBJECT.CPP
C:\USERS\SKA\DOCUMENTS\VISUAL STUDIO 2012\PROJECTS\MLD45\MLD45\RELEASE\ELVESEATFOOD.PCH
C:\USERS\SKA\DOCUMENTS\VISUAL STUDIO 2012\PROJECTS\MLD45\MLD45\GAMEOBJECT.H
^C:\USERS\SKA\DOCUMENTS\VISUAL STUDIO 2012\PROJECTS\MLD45\MLD45\ITEM.CPP
C:\USERS\SKA\DOCUMENTS\VISUAL STUDIO 2012\PROJECTS\MLD45\MLD45\RELEASE\ELVESEATFOOD.PCH
C:\USERS\SKA\DOCUMENTS\VISUAL STUDIO 2012\PROJECTS\MLD45\MLD45\ITEM.H
C:\USERS\SKA\DOCUMENTS\VISUAL STUDIO 2012\PROJECTS\MLD45\MLD45\GAMEOBJECT.H
C:\USERS\SKA\DOCUMENTS\VISUAL STUDIO 2012\PROJECTS\MLD45\MLD45\POSITION.H
^C:\USERS\SKA\DOCUMENTS\VISUAL STUDIO 2012\PROJECTS\MLD45\MLD45\MAIN.CPP
C:\USERS\SKA\DOCUMENTS\VISUAL STUDIO 2012\PROJECTS\MLD45\MLD45\RELEASE\ELVESEATFOOD.PCH
C:\USERS\SKA\DOCUMENTS\VISUAL STUDIO 2012\PROJECTS\MLD45\MLD45\GAME.H
C:\USERS\SKA\DOCUMENTS\VISUAL STUDIO 2012\PROJECTS\MLD45\MLD45\STDAFX.H
C:\USERS\SKA\DOCUMENTS\VISUAL STUDIO 2012\PROJECTS\MLD45\MLD45\GAMEWORLD.H
C:\USERS\SKA\DOCUMENTS\VISUAL STUDIO 2012\PROJECTS\MLD45\MLD45\GAMEOBJECT.H
C:\USERS\SKA\DOCUMENTS\VISUAL STUDIO 2012\PROJECTS\MLD45\MLD45\SCREENBUFFER.H
C:\USERS\SKA\DOCUMENTS\VISUAL STUDIO 2012\PROJECTS\MLD45\MLD45\ITEM.H
C:\USERS\SKA\DOCUMENTS\VISUAL STUDIO 2012\PROJECTS\MLD45\MLD45\POSITION.H
C:\USERS\SKA\DOCUMENTS\VISUAL STUDIO 2012\PROJECTS\MLD45\MLD45\CREATURE.H
C:\USERS\SKA\DOCUMENTS\VISUAL STUDIO 2012\PROJECTS\MLD45\MLD45\PATH.H
C:\USERS\SKA\DOCUMENTS\VISUAL STUDIO 2012\PROJECTS\MLD45\MLD45\ELF.H
^C:\USERS\SKA\DOCUMENTS\VISUAL STUDIO 2012\PROJECTS\MLD45\MLD45\PATH.CPP
C:\USERS\SKA\DOCUMENTS\VISUAL STUDIO 2012\PROJECTS\MLD45\MLD45\RELEASE\ELVESEATFOOD.PCH
C:\USERS\SKA\DOCUMENTS\VISUAL STUDIO 2012\PROJECTS\MLD45\MLD45\PATH.H
C:\USERS\SKA\DOCUMENTS\VISUAL STUDIO 2012\PROJECTS\MLD45\MLD45\POSITION.H
C:\USERS\SKA\DOCUMENTS\VISUAL STUDIO 2012\PROJECTS\MLD45\MLD45\SCREENBUFFER.H
C:\USERS\SKA\DOCUMENTS\VISUAL STUDIO 2012\PROJECTS\MLD45\MLD45\STDAFX.H
C:\USERS\SKA\DOCUMENTS\VISUAL STUDIO 2012\PROJECTS\MLD45\MLD45\GAMEWORLD.H
C:\USERS\SKA\DOCUMENTS\VISUAL STUDIO 2012\PROJECTS\MLD45\MLD45\GAMEOBJECT.H
C:\USERS\SKA\DOCUMENTS\VISUAL STUDIO 2012\PROJECTS\MLD45\MLD45\ITEM.H
^C:\USERS\SKA\DOCUMENTS\VISUAL STUDIO 2012\PROJECTS\MLD45\MLD45\POSITION.CPP
C:\USERS\SKA\DOCUMENTS\VISUAL STUDIO 2012\PROJECTS\MLD45\MLD45\RELEASE\ELVESEATFOOD.PCH
C:\USERS\SKA\DOCUMENTS\VISUAL STUDIO 2012\PROJECTS\MLD45\MLD45\POSITION.H
^C:\USERS\SKA\DOCUMENTS\VISUAL STUDIO 2012\PROJECTS\MLD45\MLD45\SCREENBUFFER.CPP
C:\USERS\SKA\DOCUMENTS\VISUAL STUDIO 2012\PROJECTS\MLD45\MLD45\RELEASE\ELVESEATFOOD.PCH
C:\USERS\SKA\DOCUMENTS\VISUAL STUDIO 2012\PROJECTS\MLD45\MLD45\SCREENBUFFER.H
C:\USERS\SKA\DOCUMENTS\VISUAL STUDIO 2012\PROJECTS\MLD45\MLD45\STDAFX.H
^C:\USERS\SKA\DOCUMENTS\VISUAL STUDIO 2012\PROJECTS\MLD45\MLD45\GAMEWORLD.CPP
C:\PROGRAM FILES (X86)\MICROSOFT VISUAL STUDIO 11.0\VC\BIN\1033\CLUI.DLL
C:\WINDOWS\GLOBALIZATION\SORTING\SORTDEFAULT.NLS
C:\WINDOWS\SYSTEM32\RSAENH.DLL
C:\WINDOWS\SYSTEM32\TZRES.DLL
C:\USERS\SKA\DOCUMENTS\VISUAL STUDIO 2012\PROJECTS\MLD45\MLD45\RELEASE\ELVESEATFOOD.PCH
C:\PROGRAM FILES (X86)\MICROSOFT VISUAL STUDIO 11.0\COMMON7\IDE\MSPDBSRV.EXE
C:\USERS\SKA\DOCUMENTS\VISUAL STUDIO 2012\PROJECTS\MLD45\MLD45\GAMEWORLD.H
C:\USERS\SKA\DOCUMENTS\VISUAL STUDIO 2012\PROJECTS\MLD45\MLD45\GAMEOBJECT.H
C:\USERS\SKA\DOCUMENTS\VISUAL STUDIO 2012\PROJECTS\MLD45\MLD45\SCREENBUFFER.H
C:\USERS\SKA\DOCUMENTS\VISUAL STUDIO 2012\PROJECTS\MLD45\MLD45\STDAFX.H
C:\USERS\SKA\DOCUMENTS\VISUAL STUDIO 2012\PROJECTS\MLD45\MLD45\ITEM.H
C:\USERS\SKA\DOCUMENTS\VISUAL STUDIO 2012\PROJECTS\MLD45\MLD45\POSITION.H
